<svg width="14" height="10" viewBox="0 0 14 10" fill="none" xmlns="http://www.w3.org/2000/svg">
<path d="M1.66663 5L5.66663 9L12.3333 1" stroke="#005BAC" stroke-width="2" stroke-linecap="round" stroke-linejoin="round"/>
</svg>
